%YAML 1.1
%TAG !u! tag:unity3d.com,2011:
--- !u!29 &1
OcclusionCullingSettings:
  m_ObjectHideFlags: 0
  serializedVersion: 2
  m_OcclusionBakeSettings:
    smallestOccluder: 5
    smallestHole: 0.25
    backfaceThreshold: 100
  m_SceneGUID: 00000000000000000000000000000000
  m_OcclusionCullingData: {fileID: 0}
--- !u!104 &2
RenderSettings:
  m_ObjectHideFlags: 0
  serializedVersion: 9
  m_Fog: 0
  m_FogColor: {r: 0.5, g: 0.5, b: 0.5, a: 1}
  m_FogMode: 3
  m_FogDensity: 0.01
  m_LinearFogStart: 0
  m_LinearFogEnd: 300
  m_AmbientSkyColor: {r: 0.54930794, g: 0.5617315, b: 0.58823526, a: 1}
  m_AmbientEquatorColor: {r: 0.114, g: 0.125, b: 0.133, a: 1}
  m_AmbientGroundColor: {r: 0.047, g: 0.043, b: 0.035, a: 1}
  m_AmbientIntensity: 1
  m_AmbientMode: 3
  m_SubtractiveShadowColor: {r: 0.42, g: 0.478, b: 0.627, a: 1}
  m_SkyboxMaterial: {fileID: 10304, guid: 0000000000000000f000000000000000, type: 0}
  m_HaloStrength: 0.5
  m_FlareStrength: 1
  m_FlareFadeSpeed: 3
  m_HaloTexture: {fileID: 0}
  m_SpotCookie: {fileID: 10001, guid: 0000000000000000e000000000000000, type: 0}
  m_DefaultReflectionMode: 0
  m_DefaultReflectionResolution: 128
  m_ReflectionBounces: 1
  m_ReflectionIntensity: 1
  m_CustomReflection: {fileID: 0}
  m_Sun: {fileID: 0}
  m_IndirectSpecularColor: {r: 0, g: 0, b: 0, a: 1}
  m_UseRadianceAmbientProbe: 0
--- !u!157 &3
LightmapSettings:
  m_ObjectHideFlags: 0
  serializedVersion: 11
  m_GIWorkflowMode: 1
  m_GISettings:
    serializedVersion: 2
    m_BounceScale: 1
    m_IndirectOutputScale: 1
    m_AlbedoBoost: 1
    m_EnvironmentLightingMode: 0
    m_EnableBakedLightmaps: 0
    m_EnableRealtimeLightmaps: 0
  m_LightmapEditorSettings:
    serializedVersion: 12
    m_Resolution: 2
    m_BakeResolution: 40
    m_AtlasSize: 1024
    m_AO: 0
    m_AOMaxDistance: 1
    m_CompAOExponent: 1
    m_CompAOExponentDirect: 0
    m_ExtractAmbientOcclusion: 0
    m_Padding: 2
    m_LightmapParameters: {fileID: 0}
    m_LightmapsBakeMode: 1
    m_TextureCompression: 1
    m_FinalGather: 0
    m_FinalGatherFiltering: 1
    m_FinalGatherRayCount: 256
    m_ReflectionCompression: 2
    m_MixedBakeMode: 1
    m_BakeBackend: 0
    m_PVRSampling: 1
    m_PVRDirectSampleCount: 32
    m_PVRSampleCount: 500
    m_PVRBounces: 2
    m_PVREnvironmentSampleCount: 500
    m_PVREnvironmentReferencePointCount: 2048
    m_PVRFilteringMode: 2
    m_PVRDenoiserTypeDirect: 0
    m_PVRDenoiserTypeIndirect: 0
    m_PVRDenoiserTypeAO: 0
    m_PVRFilterTypeDirect: 0
    m_PVRFilterTypeIndirect: 0
    m_PVRFilterTypeAO: 0
    m_PVREnvironmentMIS: 0
    m_PVRCulling: 1
    m_PVRFilteringGaussRadiusDirect: 1
    m_PVRFilteringGaussRadiusIndirect: 5
    m_PVRFilteringGaussRadiusAO: 2
    m_PVRFilteringAtrousPositionSigmaDirect: 0.5
    m_PVRFilteringAtrousPositionSigmaIndirect: 2
    m_PVRFilteringAtrousPositionSigmaAO: 1
    m_ExportTrainingData: 0
    m_TrainingDataDestination: TrainingData
  m_LightingDataAsset: {fileID: 0}
  m_UseShadowmask: 0
--- !u!196 &4
NavMeshSettings:
  serializedVersion: 2
  m_ObjectHideFlags: 0
  m_BuildSettings:
    serializedVersion: 2
    agentTypeID: 0
    agentRadius: 0.5
    agentHeight: 2
    agentSlope: 45
    agentClimb: 0.4
    ledgeDropHeight: 0
    maxJumpAcrossDistance: 0
    minRegionArea: 2
    manualCellSize: 0
    cellSize: 0.16666667
    manualTileSize: 0
    tileSize: 256
    accuratePlacement: 0
    debug:
      m_Flags: 0
  m_NavMeshData: {fileID: 0}
--- !u!1001 &431516527
PrefabInstance:
  m_ObjectHideFlags: 0
  serializedVersion: 2
  m_Modification:
    m_TransformParent: {fileID: 0}
    m_Modifications:
    - target: {fileID: 400000, guid: ed2304b5f262baa45853bbc4849c8956, type: 3}
      propertyPath: m_LocalPosition.x
      value: 0.009
      objectReference: {fileID: 0}
    - target: {fileID: 400000, guid: ed2304b5f262baa45853bbc4849c8956, type: 3}
      propertyPath: m_LocalPosition.y
      value: 0.054598514
      objectReference: {fileID: 0}
    - target: {fileID: 400000, guid: ed2304b5f262baa45853bbc4849c8956, type: 3}
      propertyPath: m_LocalPosition.z
      value: 0.09
      objectReference: {fileID: 0}
    - target: {fileID: 400000, guid: ed2304b5f262baa45853bbc4849c8956, type: 3}
      propertyPath: m_LocalRotation.x
      value: 0.55388075
      objectReference: {fileID: 0}
    - target: {fileID: 400000, guid: ed2304b5f262baa45853bbc4849c8956, type: 3}
      propertyPath: m_LocalRotation.y
      value: 0.51931465
      objectReference: {fileID: 0}
    - target: {fileID: 400000, guid: ed2304b5f262baa45853bbc4849c8956, type: 3}
      propertyPath: m_LocalRotation.z
      value: 0.61125416
      objectReference: {fileID: 0}
    - target: {fileID: 400000, guid: ed2304b5f262baa45853bbc4849c8956, type: 3}
      propertyPath: m_LocalRotation.w
      value: -0.22337598
      objectReference: {fileID: 0}
    - target: {fileID: 400000, guid: ed2304b5f262baa45853bbc4849c8956, type: 3}
      propertyPath: m_RootOrder
      value: 2
      objectReference: {fileID: 0}
    - target: {fileID: 400000, guid: ed2304b5f262baa45853bbc4849c8956, type: 3}
      propertyPath: m_LocalEulerAnglesHint.y
      value: -431.333
      objectReference: {fileID: 0}
    - target: {fileID: 400000, guid: ed2304b5f262baa45853bbc4849c8956, type: 3}
      propertyPath: m_LocalEulerAnglesHint.x
      value: -118.093994
      objectReference: {fileID: 0}
    - target: {fileID: 400000, guid: ed2304b5f262baa45853bbc4849c8956, type: 3}
      propertyPath: m_LocalEulerAnglesHint.z
      value: -40.194
      objectReference: {fileID: 0}
    - target: {fileID: 2300000, guid: ed2304b5f262baa45853bbc4849c8956, type: 3}
      propertyPath: m_Materials.Array.data[0]
      value: 
      objectReference: {fileID: 2100000, guid: 2269ea08073bb4640b7bb3e48a4dfaa1, type: 2}
    - target: {fileID: 2300002, guid: ed2304b5f262baa45853bbc4849c8956, type: 3}
      propertyPath: m_Materials.Array.data[0]
      value: 
      objectReference: {fileID: 2100000, guid: 2269ea08073bb4640b7bb3e48a4dfaa1, type: 2}
    m_RemovedComponents: []
  m_SourcePrefab: {fileID: 100100000, guid: ed2304b5f262baa45853bbc4849c8956, type: 3}
--- !u!1001 &903892074
PrefabInstance:
  m_ObjectHideFlags: 0
  serializedVersion: 2
  m_Modification:
    m_TransformParent: {fileID: 0}
    m_Modifications:
    - target: {fileID: 400000, guid: 03121fe10b69e5940b4e209e1857a792, type: 3}
      propertyPath: m_RootOrder
      value: 6
      objectReference: {fileID: 0}
    - target: {fileID: 400000, guid: 03121fe10b69e5940b4e209e1857a792, type: 3}
      propertyPath: m_LocalPosition.z
      value: 0.159
      objectReference: {fileID: 0}
    - target: {fileID: 400000, guid: 03121fe10b69e5940b4e209e1857a792, type: 3}
      propertyPath: m_LocalPosition.x
      value: 0.291
      objectReference: {fileID: 0}
    - target: {fileID: 400000, guid: 03121fe10b69e5940b4e209e1857a792, type: 3}
      propertyPath: m_LocalPosition.y
      value: -0.0011149
      objectReference: {fileID: 0}
    - target: {fileID: 400000, guid: 03121fe10b69e5940b4e209e1857a792, type: 3}
      propertyPath: m_LocalRotation.x
      value: 0.019375825
      objectReference: {fileID: 0}
    - target: {fileID: 400000, guid: 03121fe10b69e5940b4e209e1857a792, type: 3}
      propertyPath: m_LocalRotation.y
      value: -0.033970807
      objectReference: {fileID: 0}
    - target: {fileID: 400000, guid: 03121fe10b69e5940b4e209e1857a792, type: 3}
      propertyPath: m_LocalRotation.z
      value: 0.04482525
      objectReference: {fileID: 0}
    - target: {fileID: 400000, guid: 03121fe10b69e5940b4e209e1857a792, type: 3}
      propertyPath: m_LocalRotation.w
      value: 0.9982291
      objectReference: {fileID: 0}
    - target: {fileID: 400000, guid: 03121fe10b69e5940b4e209e1857a792, type: 3}
      propertyPath: m_LocalEulerAnglesHint.x
      value: 2.367
      objectReference: {fileID: 0}
    - target: {fileID: 400000, guid: 03121fe10b69e5940b4e209e1857a792, type: 3}
      propertyPath: m_LocalEulerAnglesHint.y
      value: -3.683
      objectReference: {fileID: 0}
    - target: {fileID: 400000, guid: 03121fe10b69e5940b4e209e1857a792, type: 3}
      propertyPath: m_LocalEulerAnglesHint.z
      value: 4.919
      objectReference: {fileID: 0}
    - target: {fileID: 400000, guid: 03121fe10b69e5940b4e209e1857a792, type: 3}
      propertyPath: m_LocalScale.x
      value: 0.95
      objectReference: {fileID: 0}
    - target: {fileID: 400000, guid: 03121fe10b69e5940b4e209e1857a792, type: 3}
      propertyPath: m_LocalScale.y
      value: 0.95
      objectReference: {fileID: 0}
    - target: {fileID: 400000, guid: 03121fe10b69e5940b4e209e1857a792, type: 3}
      propertyPath: m_LocalScale.z
      value: 0.95
      objectReference: {fileID: 0}
    - target: {fileID: 100000, guid: 03121fe10b69e5940b4e209e1857a792, type: 3}
      propertyPath: m_Name
      value: Apple (1)
      objectReference: {fileID: 0}
    - target: {fileID: 2300000, guid: 03121fe10b69e5940b4e209e1857a792, type: 3}
      propertyPath: m_Materials.Array.data[0]
      value: 
      objectReference: {fileID: 2100000, guid: 9976b8c946417404bafe5e8375b8ceb9, type: 2}
    - target: {fileID: 2300002, guid: 03121fe10b69e5940b4e209e1857a792, type: 3}
      propertyPath: m_Materials.Array.data[0]
      value: 
      objectReference: {fileID: 2100000, guid: 9976b8c946417404bafe5e8375b8ceb9, type: 2}
    m_RemovedComponents: []
  m_SourcePrefab: {fileID: 100100000, guid: 03121fe10b69e5940b4e209e1857a792, type: 3}
--- !u!1 &1027736272
GameObject:
  m_ObjectHideFlags: 0
  m_CorrespondingSourceObject: {fileID: 0}
  m_PrefabInstance: {fileID: 0}
  m_PrefabAsset: {fileID: 0}
  serializedVersion: 6
  m_Component:
  - component: {fileID: 1027736277}
  - component: {fileID: 1027736276}
  - component: {fileID: 1027736275}
  - component: {fileID: 1027736274}
  - component: {fileID: 1027736273}
  m_Layer: 0
  m_Name: Main Camera
  m_TagString: MainCamera
  m_Icon: {fileID: 0}
  m_NavMeshLayer: 0
  m_StaticEditorFlags: 0
  m_IsActive: 1
--- !u!81 &1027736273
AudioListener:
  m_ObjectHideFlags: 0
  m_CorrespondingSourceObject: {fileID: 0}
  m_PrefabInstance: {fileID: 0}
  m_PrefabAsset: {fileID: 0}
  m_GameObject: {fileID: 1027736272}
  m_Enabled: 1
--- !u!124 &1027736274
Behaviour:
  m_ObjectHideFlags: 0
  m_CorrespondingSourceObject: {fileID: 0}
  m_PrefabInstance: {fileID: 0}
  m_PrefabAsset: {fileID: 0}
  m_GameObject: {fileID: 1027736272}
  m_Enabled: 1
--- !u!92 &1027736275
Behaviour:
  m_ObjectHideFlags: 0
  m_CorrespondingSourceObject: {fileID: 0}
  m_PrefabInstance: {fileID: 0}
  m_PrefabAsset: {fileID: 0}
  m_GameObject: {fileID: 1027736272}
  m_Enabled: 1
--- !u!20 &1027736276
Camera:
  m_ObjectHideFlags: 0
  m_CorrespondingSourceObject: {fileID: 0}
  m_PrefabInstance: {fileID: 0}
  m_PrefabAsset: {fileID: 0}
  m_GameObject: {fileID: 1027736272}
  m_Enabled: 1
  serializedVersion: 2
  m_ClearFlags: 2
  m_BackGroundColor: {r: 0.93479675, g: 0.95326483, b: 0.9558824, a: 0}
  m_projectionMatrixMode: 1
  m_GateFitMode: 2
  m_FOVAxisMode: 0
  m_SensorSize: {x: 36, y: 24}
  m_LensShift: {x: 0, y: 0}
  m_FocalLength: 50
  m_NormalizedViewPortRect:
    serializedVersion: 2
    x: 0
    y: 0
    width: 1
    height: 1
  near clip plane: 0.1
  far clip plane: 1000
  field of view: 25
  orthographic: 0
  orthographic size: 5
  m_Depth: -1
  m_CullingMask:
    serializedVersion: 2
    m_Bits: 4294967295
  m_RenderingPath: -1
  m_TargetTexture: {fileID: 0}
  m_TargetDisplay: 0
  m_TargetEye: 3
  m_HDR: 0
  m_AllowMSAA: 1
  m_AllowDynamicResolution: 0
  m_ForceIntoRT: 0
  m_OcclusionCulling: 1
  m_StereoConvergence: 10
  m_StereoSeparation: 0.022
--- !u!4 &1027736277
Transform:
  m_ObjectHideFlags: 0
  m_CorrespondingSourceObject: {fileID: 0}
  m_PrefabInstance: {fileID: 0}
  m_PrefabAsset: {fileID: 0}
  m_GameObject: {fileID: 1027736272}
  m_LocalRotation: {x: 0.18872304, y: 0.123372294, z: -0.02390624, w: 0.9739566}
  m_LocalPosition: {x: 0.033, y: 0.18340649, z: -0.357}
  m_LocalScale: {x: 1, y: 1, z: 1}
  m_Children: []
  m_Father: {fileID: 0}
  m_RootOrder: 8
  m_LocalEulerAnglesHint: {x: 0, y: 0, z: 0}
--- !u!1001 &1040240731
PrefabInstance:
  m_ObjectHideFlags: 0
  serializedVersion: 2
  m_Modification:
    m_TransformParent: {fileID: 0}
    m_Modifications:
    - target: {fileID: 400000, guid: 03121fe10b69e5940b4e209e1857a792, type: 3}
      propertyPath: m_RootOrder
      value: 8
      objectReference: {fileID: 0}
    - target: {fileID: 400000, guid: 03121fe10b69e5940b4e209e1857a792, type: 3}
      propertyPath: m_LocalPosition.z
      value: 0.268
      objectReference: {fileID: 0}
    - target: {fileID: 400000, guid: 03121fe10b69e5940b4e209e1857a792, type: 3}
      propertyPath: m_LocalPosition.x
      value: 0.246
      objectReference: {fileID: 0}
    - target: {fileID: 400000, guid: 03121fe10b69e5940b4e209e1857a792, type: 3}
      propertyPath: m_LocalPosition.y
      value: -0.0017021894
      objectReference: {fileID: 0}
    - target: {fileID: 400000, guid: 03121fe10b69e5940b4e209e1857a792, type: 3}
      propertyPath: m_LocalRotation.x
      value: -0.14744107
      objectReference: {fileID: 0}
    - target: {fileID: 400000, guid: 03121fe10b69e5940b4e209e1857a792, type: 3}
      propertyPath: m_LocalRotation.z
      value: -0
      objectReference: {fileID: 0}
    - target: {fileID: 400000, guid: 03121fe10b69e5940b4e209e1857a792, type: 3}
      propertyPath: m_LocalRotation.w
      value: 0.98907083
      objectReference: {fileID: 0}
    - target: {fileID: 400000, guid: 03121fe10b69e5940b4e209e1857a792, type: 3}
      propertyPath: m_LocalEulerAnglesHint.x
      value: -16.908
      objectReference: {fileID: 0}
    - target: {fileID: 400000, guid: 03121fe10b69e5940b4e209e1857a792, type: 3}
      propertyPath: m_LocalRotation.y
      value: -0
      objectReference: {fileID: 0}
    - target: {fileID: 100000, guid: 03121fe10b69e5940b4e209e1857a792, type: 3}
      propertyPath: m_Name
      value: Apple (3)
      objectReference: {fileID: 0}
    - target: {fileID: 2300000, guid: 03121fe10b69e5940b4e209e1857a792, type: 3}
      propertyPath: m_Materials.Array.data[0]
      value: 
      objectReference: {fileID: 2100000, guid: 9976b8c946417404bafe5e8375b8ceb9, type: 2}
    - target: {fileID: 2300002, guid: 03121fe10b69e5940b4e209e1857a792, type: 3}
      propertyPath: m_Materials.Array.data[0]
      value: 
      objectReference: {fileID: 2100000, guid: 9976b8c946417404bafe5e8375b8ceb9, type: 2}
    - target: {fileID: 400004, guid: 03121fe10b69e5940b4e209e1857a792, type: 3}
      propertyPath: m_LocalRotation.x
      value: -7.856688e-17
      objectReference: {fileID: 0}
    - target: {fileID: 400004, guid: 03121fe10b69e5940b4e209e1857a792, type: 3}
      propertyPath: m_LocalRotation.y
      value: 0.3441974
      objectReference: {fileID: 0}
    - target: {fileID: 400004, guid: 03121fe10b69e5940b4e209e1857a792, type: 3}
      propertyPath: m_LocalRotation.z
      value: -3.641487e-17
      objectReference: {fileID: 0}
    - target: {fileID: 400004, guid: 03121fe10b69e5940b4e209e1857a792, type: 3}
      propertyPath: m_LocalRotation.w
      value: 0.9388973
      objectReference: {fileID: 0}
    - target: {fileID: 400004, guid: 03121fe10b69e5940b4e209e1857a792, type: 3}
      propertyPath: m_LocalPosition.x
      value: -0.0005726144
      objectReference: {fileID: 0}
    - target: {fileID: 400004, guid: 03121fe10b69e5940b4e209e1857a792, type: 3}
      propertyPath: m_LocalPosition.y
      value: -4.656613e-10
      objectReference: {fileID: 0}
    - target: {fileID: 400004, guid: 03121fe10b69e5940b4e209e1857a792, type: 3}
      propertyPath: m_LocalPosition.z
      value: 0.00010147691
      objectReference: {fileID: 0}
    - target: {fileID: 400004, guid: 03121fe10b69e5940b4e209e1857a792, type: 3}
      propertyPath: m_LocalEulerAnglesHint.y
      value: 40.504
      objectReference: {fileID: 0}
    m_RemovedComponents: []
  m_SourcePrefab: {fileID: 100100000, guid: 03121fe10b69e5940b4e209e1857a792, type: 3}
--- !u!1 &1112589736
GameObject:
  m_ObjectHideFlags: 0
  m_CorrespondingSourceObject: {fileID: 0}
  m_PrefabInstance: {fileID: 0}
  m_PrefabAsset: {fileID: 0}
  serializedVersion: 6
  m_Component:
  - component: {fileID: 1112589740}
  - component: {fileID: 1112589739}
  - component: {fileID: 1112589738}
  - component: {fileID: 1112589737}
  m_Layer: 0
  m_Name: Plane
  m_TagString: Untagged
  m_Icon: {fileID: 0}
  m_NavMeshLayer: 0
  m_StaticEditorFlags: 0
  m_IsActive: 1
--- !u!23 &1112589737
MeshRenderer:
  m_ObjectHideFlags: 0
  m_CorrespondingSourceObject: {fileID: 0}
  m_PrefabInstance: {fileID: 0}
  m_PrefabAsset: {fileID: 0}
  m_GameObject: {fileID: 1112589736}
  m_Enabled: 1
  m_CastShadows: 1
  m_ReceiveShadows: 1
  m_DynamicOccludee: 1
  m_MotionVectors: 1
  m_LightProbeUsage: 1
  m_ReflectionProbeUsage: 1
  m_RenderingLayerMask: 1
  m_RendererPriority: 0
  m_Materials:
  - {fileID: 2100000, guid: 97efb4cbca8292e4bbb04212d79129f7, type: 2}
  m_StaticBatchInfo:
    firstSubMesh: 0
    subMeshCount: 0
  m_StaticBatchRoot: {fileID: 0}
  m_ProbeAnchor: {fileID: 0}
  m_LightProbeVolumeOverride: {fileID: 0}
  m_ScaleInLightmap: 1
  m_ReceiveGI: 1
  m_PreserveUVs: 1
  m_IgnoreNormalsForChartDetection: 0
  m_ImportantGI: 0
  m_StitchLightmapSeams: 1
  m_SelectedEditorRenderState: 3
  m_MinimumChartSize: 4
  m_AutoUVMaxDistance: 0.5
  m_AutoUVMaxAngle: 89
  m_LightmapParameters: {fileID: 0}
  m_SortingLayerID: 0
  m_SortingLayer: 0
  m_SortingOrder: 0
--- !u!64 &1112589738
MeshCollider:
  m_ObjectHideFlags: 0
  m_CorrespondingSourceObject: {fileID: 0}
  m_PrefabInstance: {fileID: 0}
  m_PrefabAsset: {fileID: 0}
  m_GameObject: {fileID: 1112589736}
  m_Material: {fileID: 0}
  m_IsTrigger: 0
  m_Enabled: 1
  serializedVersion: 3
  m_Convex: 0
  m_CookingOptions: 14
  m_Mesh: {fileID: 10209, guid: 0000000000000000e000000000000000, type: 0}
--- !u!33 &1112589739
MeshFilter:
  m_ObjectHideFlags: 0
  m_CorrespondingSourceObject: {fileID: 0}
  m_PrefabInstance: {fileID: 0}
  m_PrefabAsset: {fileID: 0}
  m_GameObject: {fileID: 1112589736}
  m_Mesh: {fileID: 10209, guid: 0000000000000000e000000000000000, type: 0}
--- !u!4 &1112589740
Transform:
  m_ObjectHideFlags: 0
  m_CorrespondingSourceObject: {fileID: 0}
  m_PrefabInstance: {fileID: 0}
  m_PrefabAsset: {fileID: 0}
  m_GameObject: {fileID: 1112589736}
  m_LocalRotation: {x: 0, y: 0, z: 0, w: 1}
  m_LocalPosition: {x: 0, y: 0, z: 0}
  m_LocalScale: {x: 0.1, y: 0.1, z: 0.1}
  m_Children: []
  m_Father: {fileID: 0}
  m_RootOrder: 10
  m_LocalEulerAnglesHint: {x: 0, y: 0, z: 0}
--- !u!1001 &1388785114
PrefabInstance:
  m_ObjectHideFlags: 0
  serializedVersion: 2
  m_Modification:
    m_TransformParent: {fileID: 0}
    m_Modifications:
    - target: {fileID: 400000, guid: 03121fe10b69e5940b4e209e1857a792, type: 3}
      propertyPath: m_RootOrder
      value: 9
      objectReference: {fileID: 0}
    - target: {fileID: 400000, guid: 03121fe10b69e5940b4e209e1857a792, type: 3}
      propertyPath: m_LocalPosition.z
      value: 0.278
      objectReference: {fileID: 0}
    - target: {fileID: 400000, guid: 03121fe10b69e5940b4e209e1857a792, type: 3}
      propertyPath: m_LocalPosition.x
      value: 0.334
      objectReference: {fileID: 0}
    - target: {fileID: 400000, guid: 03121fe10b69e5940b4e209e1857a792, type: 3}
      propertyPath: m_LocalPosition.y
      value: -0.004
      objectReference: {fileID: 0}
    - target: {fileID: 100000, guid: 03121fe10b69e5940b4e209e1857a792, type: 3}
      propertyPath: m_Name
      value: Apple (4)
      objectReference: {fileID: 0}
    - target: {fileID: 2300000, guid: 03121fe10b69e5940b4e209e1857a792, type: 3}
      propertyPath: m_Materials.Array.data[0]
      value: 
      objectReference: {fileID: 2100000, guid: 9976b8c946417404bafe5e8375b8ceb9, type: 2}
    - target: {fileID: 2300002, guid: 03121fe10b69e5940b4e209e1857a792, type: 3}
      propertyPath: m_Materials.Array.data[0]
      value: 
      objectReference: {fileID: 2100000, guid: 9976b8c946417404bafe5e8375b8ceb9, type: 2}
    m_RemovedComponents: []
  m_SourcePrefab: {fileID: 100100000, guid: 03121fe10b69e5940b4e209e1857a792, type: 3}
--- !u!1001 &1409559416
PrefabInstance:
  m_ObjectHideFlags: 0
  serializedVersion: 2
  m_Modification:
    m_TransformParent: {fileID: 0}
    m_Modifications:
    - target: {fileID: 400000, guid: 03121fe10b69e5940b4e209e1857a792, type: 3}
      propertyPath: m_RootOrder
      value: 7
      objectReference: {fileID: 0}
    - target: {fileID: 400000, guid: 03121fe10b69e5940b4e209e1857a792, type: 3}
      propertyPath: m_LocalPosition.z
      value: 0.226
      objectReference: {fileID: 0}
    - target: {fileID: 400000, guid: 03121fe10b69e5940b4e209e1857a792, type: 3}
      propertyPath: m_LocalPosition.x
      value: 0.406
      objectReference: {fileID: 0}
    - target: {fileID: 400000, guid: 03121fe10b69e5940b4e209e1857a792, type: 3}
      propertyPath: m_LocalPosition.y
      value: -0.0040000007
      objectReference: {fileID: 0}
    - target: {fileID: 400000, guid: 03121fe10b69e5940b4e209e1857a792, type: 3}
      propertyPath: m_LocalRotation.x
      value: -0
      objectReference: {fileID: 0}
    - target: {fileID: 400000, guid: 03121fe10b69e5940b4e209e1857a792, type: 3}
      propertyPath: m_LocalRotation.y
      value: -0.975972
      objectReference: {fileID: 0}
    - target: {fileID: 400000, guid: 03121fe10b69e5940b4e209e1857a792, type: 3}
      propertyPath: m_LocalRotation.w
      value: -0.2178962
      objectReference: {fileID: 0}
    - target: {fileID: 400000, guid: 03121fe10b69e5940b4e209e1857a792, type: 3}
      propertyPath: m_LocalEulerAnglesHint.y
      value: -205.006
      objectReference: {fileID: 0}
    - target: {fileID: 400000, guid: 03121fe10b69e5940b4e209e1857a792, type: 3}
      propertyPath: m_LocalRotation.z
      value: -0
      objectReference: {fileID: 0}
    - target: {fileID: 100000, guid: 03121fe10b69e5940b4e209e1857a792, type: 3}
      propertyPath: m_Name
      value: Apple (2)
      objectReference: {fileID: 0}
    - target: {fileID: 2300000, guid: 03121fe10b69e5940b4e209e1857a792, type: 3}
      propertyPath: m_Materials.Array.data[0]
      value: 
      objectReference: {fileID: 2100000, guid: 9976b8c946417404bafe5e8375b8ceb9, type: 2}
    - target: {fileID: 2300002, guid: 03121fe10b69e5940b4e209e1857a792, type: 3}
      propertyPath: m_Materials.Array.data[0]
      value: 
      objectReference: {fileID: 2100000, guid: 9976b8c946417404bafe5e8375b8ceb9, type: 2}
    m_RemovedComponents: []
  m_SourcePrefab: {fileID: 100100000, guid: 03121fe10b69e5940b4e209e1857a792, type: 3}
--- !u!1001 &1587683057
PrefabInstance:
  m_ObjectHideFlags: 0
  serializedVersion: 2
  m_Modification:
    m_TransformParent: {fileID: 0}
    m_Modifications:
    - target: {fileID: 400000, guid: 03121fe10b69e5940b4e209e1857a792, type: 3}
      propertyPath: m_RootOrder
      value: 3
      objectReference: {fileID: 0}
    - target: {fileID: 400000, guid: 03121fe10b69e5940b4e209e1857a792, type: 3}
      propertyPath: m_LocalPosition.x
      value: 0.177
      objectReference: {fileID: 0}
    - target: {fileID: 400000, guid: 03121fe10b69e5940b4e209e1857a792, type: 3}
      propertyPath: m_LocalPosition.z
      value: -0.058
      objectReference: {fileID: 0}
    - target: {fileID: 400000, guid: 03121fe10b69e5940b4e209e1857a792, type: 3}
      propertyPath: m_LocalPosition.y
      value: -0.0029503
      objectReference: {fileID: 0}
    - target: {fileID: 400000, guid: 03121fe10b69e5940b4e209e1857a792, type: 3}
      propertyPath: m_LocalRotation.x
      value: -0
      objectReference: {fileID: 0}
    - target: {fileID: 400000, guid: 03121fe10b69e5940b4e209e1857a792, type: 3}
      propertyPath: m_LocalRotation.y
      value: -0.3366026
      objectReference: {fileID: 0}
    - target: {fileID: 400000, guid: 03121fe10b69e5940b4e209e1857a792, type: 3}
      propertyPath: m_LocalRotation.w
      value: -0.9416468
      objectReference: {fileID: 0}
    - target: {fileID: 400000, guid: 03121fe10b69e5940b4e209e1857a792, type: 3}
      propertyPath: m_LocalEulerAnglesHint.y
      value: -320.399
      objectReference: {fileID: 0}
    - target: {fileID: 400000, guid: 03121fe10b69e5940b4e209e1857a792, type: 3}
      propertyPath: m_LocalRotation.z
      value: -0
      objectReference: {fileID: 0}
    - target: {fileID: 400000, guid: 03121fe10b69e5940b4e209e1857a792, type: 3}
      propertyPath: m_LocalScale.x
      value: 0.98
      objectReference: {fileID: 0}
    - target: {fileID: 400000, guid: 03121fe10b69e5940b4e209e1857a792, type: 3}
      propertyPath: m_LocalScale.y
      value: 0.98
      objectReference: {fileID: 0}
    - target: {fileID: 400000, guid: 03121fe10b69e5940b4e209e1857a792, type: 3}
      propertyPath: m_LocalScale.z
      value: 0.98
      objectReference: {fileID: 0}
    - target: {fileID: 2300000, guid: 03121fe10b69e5940b4e209e1857a792, type: 3}
      propertyPath: m_Materials.Array.data[0]
      value: 
      objectReference: {fileID: 2100000, guid: 9976b8c946417404bafe5e8375b8ceb9, type: 2}
    - target: {fileID: 2300002, guid: 03121fe10b69e5940b4e209e1857a792, type: 3}
      propertyPath: m_Materials.Array.data[0]
      value: 
      objectReference: {fileID: 2100000, guid: 9976b8c946417404bafe5e8375b8ceb9, type: 2}
    m_RemovedComponents: []
  m_SourcePrefab: {fileID: 100100000, guid: 03121fe10b69e5940b4e209e1857a792, type: 3}
--- !u!1 &1614147678
GameObject:
  m_ObjectHideFlags: 0
  m_CorrespondingSourceObject: {fileID: 0}
  m_PrefabInstance: {fileID: 0}
  m_PrefabAsset: {fileID: 0}
  serializedVersion: 6
  m_Component:
  - component: {fileID: 1614147680}
  - component: {fileID: 1614147679}
  m_Layer: 0
  m_Name: Directional Light
  m_TagString: Untagged
  m_Icon: {fileID: 0}
  m_NavMeshLayer: 0
  m_StaticEditorFlags: 0
  m_IsActive: 1
--- !u!108 &1614147679
Light:
  m_ObjectHideFlags: 0
  m_CorrespondingSourceObject: {fileID: 0}
  m_PrefabInstance: {fileID: 0}
  m_PrefabAsset: {fileID: 0}
  m_GameObject: {fileID: 1614147678}
  m_Enabled: 1
  serializedVersion: 9
  m_Type: 1
  m_Color: {r: 1, g: 0.95686275, b: 0.8392157, a: 1}
  m_Intensity: 1
  m_Range: 10
  m_SpotAngle: 30
  m_InnerSpotAngle: 21.80208
  m_CookieSize: 10
  m_Shadows:
    m_Type: 2
    m_Resolution: -1
    m_CustomResolution: -1
    m_Strength: 1
    m_Bias: 0.01
    m_NormalBias: 0.4
    m_NearPlane: 0.2
    m_CullingMatrixOverride:
      e00: 1
      e01: 0
      e02: 0
      e03: 0
      e10: 0
      e11: 1
      e12: 0
      e13: 0
      e20: 0
      e21: 0
      e22: 1
      e23: 0
      e30: 0
      e31: 0
      e32: 0
      e33: 1
    m_UseCullingMatrixOverride: 0
  m_Cookie: {fileID: 0}
  m_DrawHalo: 0
  m_Flare: {fileID: 0}
  m_RenderMode: 0
  m_CullingMask:
    serializedVersion: 2
    m_Bits: 4294967295
  m_RenderingLayerMask: 1
  m_Lightmapping: 4
  m_LightShadowCasterMode: 0
  m_AreaSize: {x: 1, y: 1}
  m_BounceIntensity: 0
  m_ColorTemperature: 6570
  m_UseColorTemperature: 0
  m_BoundingSphereOverride: {x: 0, y: 0, z: 0, w: 0}
  m_UseBoundingSphereOverride: 0
  m_ShadowRadius: 0
  m_ShadowAngle: 0
--- !u!4 &1614147680
Transform:
  m_ObjectHideFlags: 0
  m_CorrespondingSourceObject: {fileID: 0}
  m_PrefabInstance: {fileID: 0}
  m_PrefabAsset: {fileID: 0}
  m_GameObject: {fileID: 1614147678}
  m_LocalRotation: {x: 0.8277411, y: 0.14702015, z: -0.2546464, w: 0.47789645}
  m_LocalPosition: {x: 0.123, y: 3, z: -0.057}
  m_LocalScale: {x: 1, y: 1, z: 1}
  m_Children: []
  m_Father: {fileID: 0}
  m_RootOrder: 9
  m_LocalEulerAnglesHint: {x: 120, y: 34.2, z: 0}
--- !u!1 &1712885622
GameObject:
  m_ObjectHideFlags: 0
  m_CorrespondingSourceObject: {fileID: 0}
  m_PrefabInstance: {fileID: 0}
  m_PrefabAsset: {fileID: 0}
  serializedVersion: 6
  m_Component:
  - component: {fileID: 1712885624}
  - component: {fileID: 1712885623}
  m_Layer: 0
  m_Name: Spotlight
  m_TagString: Untagged
  m_Icon: {fileID: 0}
  m_NavMeshLayer: 0
  m_StaticEditorFlags: 0
  m_IsActive: 1
--- !u!108 &1712885623
Light:
  m_ObjectHideFlags: 0
  m_CorrespondingSourceObject: {fileID: 0}
  m_PrefabInstance: {fileID: 0}
  m_PrefabAsset: {fileID: 0}
  m_GameObject: {fileID: 1712885622}
  m_Enabled: 1
  serializedVersion: 9
  m_Type: 0
  m_Color: {r: 0.9705882, g: 0.9670445, b: 0.842128, a: 1}
  m_Intensity: 1.55
  m_Range: 0.95
  m_SpotAngle: 65
  m_InnerSpotAngle: 49.205544
  m_CookieSize: 10
  m_Shadows:
    m_Type: 0
    m_Resolution: -1
    m_CustomResolution: -1
    m_Strength: 1
    m_Bias: 0.05
    m_NormalBias: 0.4
    m_NearPlane: 0.2
    m_CullingMatrixOverride:
      e00: 1
      e01: 0
      e02: 0
      e03: 0
      e10: 0
      e11: 1
      e12: 0
      e13: 0
      e20: 0
      e21: 0
      e22: 1
      e23: 0
      e30: 0
      e31: 0
      e32: 0
      e33: 1
    m_UseCullingMatrixOverride: 0
  m_Cookie: {fileID: 0}
  m_DrawHalo: 0
  m_Flare: {fileID: 0}
  m_RenderMode: 0
  m_CullingMask:
    serializedVersion: 2
    m_Bits: 4294967295
  m_RenderingLayerMask: 1
  m_Lightmapping: 4
  m_LightShadowCasterMode: 0
  m_AreaSize: {x: 1, y: 1}
  m_BounceIntensity: 0
  m_ColorTemperature: 6570
  m_UseColorTemperature: 0
  m_BoundingSphereOverride: {x: 0, y: 0, z: 0, w: 0}
  m_UseBoundingSphereOverride: 0
  m_ShadowRadius: 0
  m_ShadowAngle: 0
--- !u!4 &1712885624
Transform:
  m_ObjectHideFlags: 0
  m_CorrespondingSourceObject: {fileID: 0}
  m_PrefabInstance: {fileID: 0}
  m_PrefabAsset: {fileID: 0}
  m_GameObject: {fileID: 1712885622}
  m_LocalRotation: {x: 0.34583044, y: 0.34907666, z: -0.17664671, w: 0.85284394}
  m_LocalPosition: {x: -0.084, y: 0.357, z: -0.166}
  m_LocalScale: {x: 1, y: 1, z: 1}
  m_Children: []
  m_Father: {fileID: 0}
  m_RootOrder: 11
  m_LocalEulerAnglesHint: {x: 45.493004, y: 42.569, z: -4.76}
--- !u!1001 &1871646249
PrefabInstance:
  m_ObjectHideFlags: 0
  serializedVersion: 2
  m_Modification:
    m_TransformParent: {fileID: 0}
    m_Modifications:
    - target: {fileID: 400000, guid: fee6a0082fa42cf4bb1d0ea7a3a7641f, type: 3}
      propertyPath: m_LocalPosition.x
      value: 0.048
      objectReference: {fileID: 0}
    - target: {fileID: 400000, guid: fee6a0082fa42cf4bb1d0ea7a3a7641f, type: 3}
      propertyPath: m_LocalPosition.y
      value: 0.030436
      objectReference: {fileID: 0}
    - target: {fileID: 400000, guid: fee6a0082fa42cf4bb1d0ea7a3a7641f, type: 3}
      propertyPath: m_LocalPosition.z
      value: -0.029
      objectReference: {fileID: 0}
    - target: {fileID: 400000, guid: fee6a0082fa42cf4bb1d0ea7a3a7641f, type: 3}
      propertyPath: m_LocalRotation.x
      value: 0.19174445
      objectReference: {fileID: 0}
    - target: {fileID: 400000, guid: fee6a0082fa42cf4bb1d0ea7a3a7641f, type: 3}
      propertyPath: m_LocalRotation.y
      value: -0.7928486
      objectReference: {fileID: 0}
    - target: {fileID: 400000, guid: fee6a0082fa42cf4bb1d0ea7a3a7641f, type: 3}
      propertyPath: m_LocalRotation.z
      value: -0.50579566
      objectReference: {fileID: 0}
    - target: {fileID: 400000, guid: fee6a0082fa42cf4bb1d0ea7a3a7641f, type: 3}
      propertyPath: m_LocalRotation.w
      value: -0.28070614
      objectReference: {fileID: 0}
    - target: {fileID: 400000, guid: fee6a0082fa42cf4bb1d0ea7a3a7641f, type: 3}
      propertyPath: m_RootOrder
      value: 1
      objectReference: {fileID: 0}
    - target: {fileID: 400000, guid: fee6a0082fa42cf4bb1d0ea7a3a7641f, type: 3}
      propertyPath: m_LocalEulerAnglesHint.x
      value: -114.558
      objectReference: {fileID: 0}
    - target: {fileID: 400000, guid: fee6a0082fa42cf4bb1d0ea7a3a7641f, type: 3}
      propertyPath: m_LocalEulerAnglesHint.z
      value: -182.692
      objectReference: {fileID: 0}
    - target: {fileID: 400000, guid: fee6a0082fa42cf4bb1d0ea7a3a7641f, type: 3}
      propertyPath: m_LocalEulerAnglesHint.y
      value: -37.471985
      objectReference: {fileID: 0}
    - target: {fileID: 400000, guid: fee6a0082fa42cf4bb1d0ea7a3a7641f, type: 3}
      propertyPath: m_LocalScale.x
      value: 0.9034972
      objectReference: {fileID: 0}
    - target: {fileID: 400000, guid: fee6a0082fa42cf4bb1d0ea7a3a7641f, type: 3}
      propertyPath: m_LocalScale.y
      value: 0.9034972
      objectReference: {fileID: 0}
    - target: {fileID: 400000, guid: fee6a0082fa42cf4bb1d0ea7a3a7641f, type: 3}
      propertyPath: m_LocalScale.z
      value: 0.9034972
      objectReference: {fileID: 0}
    m_RemovedComponents: []
  m_SourcePrefab: {fileID: 100100000, guid: fee6a0082fa42cf4bb1d0ea7a3a7641f, type: 3}
--- !u!1001 &1883384042
PrefabInstance:
  m_ObjectHideFlags: 0
  serializedVersion: 2
  m_Modification:
    m_TransformParent: {fileID: 0}
    m_Modifications:
    - target: {fileID: 400000, guid: 03121fe10b69e5940b4e209e1857a792, type: 3}
      propertyPath: m_RootOrder
      value: 10
      objectReference: {fileID: 0}
    - target: {fileID: 400000, guid: 03121fe10b69e5940b4e209e1857a792, type: 3}
      propertyPath: m_LocalPosition.z
      value: 0.341
      objectReference: {fileID: 0}
    - target: {fileID: 400000, guid: 03121fe10b69e5940b4e209e1857a792, type: 3}
      propertyPath: m_LocalPosition.x
      value: 0.26
      objectReference: {fileID: 0}
    - target: {fileID: 400000, guid: 03121fe10b69e5940b4e209e1857a792, type: 3}
      propertyPath: m_LocalPosition.y
      value: 0.005588
      objectReference: {fileID: 0}
    - target: {fileID: 400000, guid: 03121fe10b69e5940b4e209e1857a792, type: 3}
      propertyPath: m_LocalRotation.x
      value: -0
      objectReference: {fileID: 0}
    - target: {fileID: 400000, guid: 03121fe10b69e5940b4e209e1857a792, type: 3}
      propertyPath: m_LocalRotation.y
      value: -0
      objectReference: {fileID: 0}
    - target: {fileID: 400000, guid: 03121fe10b69e5940b4e209e1857a792, type: 3}
      propertyPath: m_LocalRotation.z
      value: 0.26788858
      objectReference: {fileID: 0}
    - target: {fileID: 400000, guid: 03121fe10b69e5940b4e209e1857a792, type: 3}
      propertyPath: m_LocalRotation.w
      value: 0.9634499
      objectReference: {fileID: 0}
    - target: {fileID: 400000, guid: 03121fe10b69e5940b4e209e1857a792, type: 3}
      propertyPath: m_LocalEulerAnglesHint.z
      value: 31.138002
      objectReference: {fileID: 0}
    - target: {fileID: 400000, guid: 03121fe10b69e5940b4e209e1857a792, type: 3}
      propertyPath: m_LocalScale.x
      value: 0.95763934
      objectReference: {fileID: 0}
    - target: {fileID: 400000, guid: 03121fe10b69e5940b4e209e1857a792, type: 3}
      propertyPath: m_LocalScale.y
      value: 0.95763934
      objectReference: {fileID: 0}
    - target: {fileID: 400000, guid: 03121fe10b69e5940b4e209e1857a792, type: 3}
      propertyPath: m_LocalScale.z
      value: 0.95763934
      objectReference: {fileID: 0}
    - target: {fileID: 100000, guid: 03121fe10b69e5940b4e209e1857a792, type: 3}
      propertyPath: m_Name
      value: Apple (5)
      objectReference: {fileID: 0}
    - target: {fileID: 2300000, guid: 03121fe10b69e5940b4e209e1857a792, type: 3}
      propertyPath: m_Materials.Array.data[0]
      value: 
      objectReference: {fileID: 2100000, guid: 9976b8c946417404bafe5e8375b8ceb9, type: 2}
    - target: {fileID: 2300002, guid: 03121fe10b69e5940b4e209e1857a792, type: 3}
      propertyPath: m_Materials.Array.data[0]
      value: 
      objectReference: {fileID: 2100000, guid: 9976b8c946417404bafe5e8375b8ceb9, type: 2}
    m_RemovedComponents: []
  m_SourcePrefab: {fileID: 100100000, guid: 03121fe10b69e5940b4e209e1857a792, type: 3}
