<?xml version="1.0" encoding="UTF-8" standalone="no" ?>
<COLLADA xmlns="http://www.collada.org/2005/11/COLLADASchema" version="1.4.1">
    <asset>
        <contributor>
            <authoring_tool>SketchUp 17.2.2555</authoring_tool>
        </contributor>
        <created>2018-04-17T13:08:28Z</created>
        <modified>2018-04-17T13:08:28Z</modified>
        <unit meter="0.0254" name="inch" />
        <up_axis>Z_UP</up_axis>
    </asset>
    <library_cameras>
        <camera id="ID1" name="skp_camera_Last_Saved_SketchUp_View">
            <optics>
                <technique_common>
                    <perspective>
                        <yfov>35</yfov>
                        <aspect_ratio>0</aspect_ratio>
                        <znear>1</znear>
                        <zfar>1000</zfar>
                    </perspective>
                </technique_common>
            </optics>
        </camera>
    </library_cameras>
    <library_visual_scenes>
        <visual_scene id="ID2">
            <node name="SketchUp">
                <instance_geometry url="#ID3">
                    <bind_material>
                        <technique_common>
                            <instance_material symbol="Material2" target="#ID5">
                                <bind_vertex_input semantic="UVSET0" input_semantic="TEXCOORD" input_set="0" />
                            </instance_material>
                        </technique_common>
                    </bind_material>
                </instance_geometry>
                <instance_geometry url="#ID11">
                    <bind_material>
                        <technique_common>
                            <instance_material symbol="Material2" target="#ID5">
                                <bind_vertex_input semantic="UVSET0" input_semantic="TEXCOORD" input_set="0" />
                            </instance_material>
                        </technique_common>
                    </bind_material>
                </instance_geometry>
                <node name="skp_camera_Last_Saved_SketchUp_View">
                    <matrix>0.8320297 -0.1058345 0.5445417 240.719 0.5547311 0.1587389 -0.8167468 -236.0692 -2.775558e-17 0.9816318 0.1907852 102.2762 0 0 0 1</matrix>
                    <instance_camera url="#ID1" />
                </node>
            </node>
        </visual_scene>
    </library_visual_scenes>
    <library_geometries>
        <geometry id="ID3">
            <mesh>
                <source id="ID6">
                    <float_array id="ID9" count="432">-119.3342 68.89764 0 -128.3382 7.85845e-15 0 -133.1 35.66404 0 -123.9652 33.21638 0 -111.1442 64.16912 0 -97.43597 97.43597 0 -90.74883 90.74883 0 -68.89764 119.3342 0 -64.16912 111.1442 0 -35.66404 133.1 0 -33.21638 123.9652 0 0 137.7953 0 0 128.3382 0 35.66404 133.1 0 33.21638 123.9652 0 64.16912 111.1442 0 68.89764 119.3342 0 90.74883 90.74883 0 97.43597 97.43597 0 111.1442 64.16912 0 119.3342 68.89764 0 123.9652 33.21638 0 133.1 35.66404 0 128.3382 -2.357535e-14 0 133.1 -35.66404 0 137.7953 -2.531258e-14 0 -133.1 -35.66404 0 -137.7953 8.437527e-15 0 -119.3342 -68.89764 0 -123.9652 -33.21638 0 -111.1442 -64.16912 0 -97.43597 -97.43597 0 -90.74883 -90.74883 0 -68.89764 -119.3342 0 -64.16912 -111.1442 0 -35.66404 -133.1 0 -33.21638 -123.9652 0 -1.687505e-14 -137.7953 0 -1.57169e-14 -128.3382 0 35.66404 -133.1 0 33.21638 -123.9652 0 64.16912 -111.1442 0 68.89764 -119.3342 0 90.74883 -90.74883 0 97.43597 -97.43597 0 111.1442 -64.16912 0 119.3342 -68.89764 0 123.9652 -33.21638 0 97.43597 -97.43597 17.32283 68.89764 -119.3342 0 97.43597 -97.43597 0 68.89764 -119.3342 17.32283 35.66404 -133.1 0 35.66404 -133.1 17.32283 -1.687505e-14 -137.7953 0 -1.687505e-14 -137.7953 17.32283 -35.66404 -133.1 0 -35.66404 -133.1 17.32283 -68.89764 -119.3342 0 -68.89764 -119.3342 17.32283 -97.43597 -97.43597 0 -97.43597 -97.43597 17.32283 -119.3342 -68.89764 17.32283 -119.3342 -68.89764 0 -133.1 -35.66404 17.32283 -133.1 -35.66404 0 -137.7953 8.437527e-15 17.32283 -137.7953 8.437527e-15 0 -133.1 35.66404 17.32283 -133.1 35.66404 0 -119.3342 68.89764 17.32283 -119.3342 68.89764 0 -97.43597 97.43597 17.32283 -97.43597 97.43597 0 -68.89764 119.3342 0 -68.89764 119.3342 17.32283 -35.66404 133.1 0 -35.66404 133.1 17.32283 0 137.7953 0 0 137.7953 17.32283 35.66404 133.1 0 35.66404 133.1 17.32283 68.89764 119.3342 0 68.89764 119.3342 17.32283 97.43597 97.43597 0 97.43597 97.43597 17.32283 119.3342 68.89764 17.32283 119.3342 68.89764 0 133.1 35.66404 17.32283 133.1 35.66404 0 137.7953 -2.531258e-14 17.32283 137.7953 -2.531258e-14 0 133.1 -35.66404 17.32283 133.1 -35.66404 0 119.3342 -68.89764 17.32283 119.3342 -68.89764 0 -133.1 -35.66404 17.32283 -133.1 35.66404 17.32283 -137.7953 8.437527e-15 17.32283 -119.3342 -68.89764 17.32283 -128.3382 7.85845e-15 17.32283 -123.9652 -33.21638 17.32283 -111.1442 -64.16912 17.32283 -97.43597 -97.43597 17.32283 -90.74883 -90.74883 17.32283 -68.89764 -119.3342 17.32283 -64.16912 -111.1442 17.32283 -35.66404 -133.1 17.32283 -33.21638 -123.9652 17.32283 -1.687505e-14 -137.7953 17.32283 -1.57169e-14 -128.3382 17.32283 35.66404 -133.1 17.32283 33.21638 -123.9652 17.32283 64.16912 -111.1442 17.32283 68.89764 -119.3342 17.32283 90.74883 -90.74883 17.32283 97.43597 -97.43597 17.32283 111.1442 -64.16912 17.32283 119.3342 -68.89764 17.32283 123.9652 -33.21638 17.32283 133.1 -35.66404 17.32283 128.3382 -2.357535e-14 17.32283 -119.3342 68.89764 17.32283 -123.9652 33.21638 17.32283 -111.1442 64.16912 17.32283 -97.43597 97.43597 17.32283 -90.74883 90.74883 17.32283 -68.89764 119.3342 17.32283 -64.16912 111.1442 17.32283 -35.66404 133.1 17.32283 -33.21638 123.9652 17.32283 0 137.7953 17.32283 0 128.3382 17.32283 33.21638 123.9652 17.32283 35.66404 133.1 17.32283 64.16912 111.1442 17.32283 68.89764 119.3342 17.32283 90.74883 90.74883 17.32283 97.43597 97.43597 17.32283 111.1442 64.16912 17.32283 119.3342 68.89764 17.32283 123.9652 33.21638 17.32283 133.1 35.66404 17.32283 137.7953 -2.531258e-14 17.32283</float_array>
                    <technique_common>
                        <accessor count="144" source="#ID9" stride="3">
                            <param name="X" type="float" />
                            <param name="Y" type="float" />
                            <param name="Z" type="float" />
                        </accessor>
                    </technique_common>
                </source>
                <source id="ID7">
                    <float_array id="ID10" count="432">0 0 -1 0 0 -1 0 0 -1 0 0 -1 0 0 -1 0 0 -1 0 0 -1 0 0 -1 0 0 -1 0 0 -1 0 0 -1 0 0 -1 0 0 -1 0 0 -1 0 0 -1 0 0 -1 0 0 -1 0 0 -1 0 0 -1 0 0 -1 0 0 -1 0 0 -1 0 0 -1 0 0 -1 0 0 -1 0 0 -1 0 0 -1 0 0 -1 0 0 -1 0 0 -1 0 0 -1 0 0 -1 0 0 -1 0 0 -1 0 0 -1 0 0 -1 0 0 -1 0 0 -1 0 0 -1 0 0 -1 0 0 -1 0 0 -1 0 0 -1 0 0 -1 0 0 -1 0 0 -1 0 0 -1 0 0 -1 0.7071068 -0.7071068 0 0.5 -0.8660254 0 0.7071068 -0.7071068 0 0.5 -0.8660254 0 0.258819 -0.9659258 0 0.258819 -0.9659258 0 -2.673333e-16 -1 0 -2.673333e-16 -1 0 -0.258819 -0.9659258 0 -0.258819 -0.9659258 0 -0.5 -0.8660254 0 -0.5 -0.8660254 0 -0.7071068 -0.7071068 0 -0.7071068 -0.7071068 0 -0.8660254 -0.5 0 -0.8660254 -0.5 0 -0.9659258 -0.258819 0 -0.9659258 -0.258819 0 -1 3.386222e-16 0 -1 3.386222e-16 0 -0.9659258 0.258819 0 -0.9659258 0.258819 0 -0.8660254 0.5 0 -0.8660254 0.5 0 -0.7071068 0.7071068 0 -0.7071068 0.7071068 0 -0.5 0.8660254 0 -0.5 0.8660254 0 -0.258819 0.9659258 0 -0.258819 0.9659258 0 1.782222e-16 1 0 1.782222e-16 1 0 0.258819 0.9659258 0 0.258819 0.9659258 0 0.5 0.8660254 0 0.5 0.8660254 0 0.7071068 0.7071068 0 0.7071068 0.7071068 0 0.8660254 0.5 0 0.8660254 0.5 0 0.9659258 0.258819 0 0.9659258 0.258819 0 1 -2.049555e-16 0 1 -2.049555e-16 0 0.9659258 -0.258819 0 0.9659258 -0.258819 0 0.8660254 -0.5 0 0.8660254 -0.5 0 0 0 1 0 0 1 0 0 1 0 0 1 0 0 1 0 0 1 0 0 1 0 0 1 0 0 1 0 0 1 0 0 1 0 0 1 0 0 1 0 0 1 0 0 1 0 0 1 0 0 1 0 0 1 0 0 1 0 0 1 0 0 1 0 0 1 0 0 1 0 0 1 0 0 1 0 0 1 0 0 1 0 0 1 0 0 1 0 0 1 0 0 1 0 0 1 0 0 1 0 0 1 0 0 1 0 0 1 0 0 1 0 0 1 0 0 1 0 0 1 0 0 1 0 0 1 0 0 1 0 0 1 0 0 1 0 0 1 0 0 1 0 0 1</float_array>
                    <technique_common>
                        <accessor count="144" source="#ID10" stride="3">
                            <param name="X" type="float" />
                            <param name="Y" type="float" />
                            <param name="Z" type="float" />
                        </accessor>
                    </technique_common>
                </source>
                <vertices id="ID8">
                    <input semantic="POSITION" source="#ID6" />
                    <input semantic="NORMAL" source="#ID7" />
                </vertices>
                <triangles count="144" material="Material2">
                    <input offset="0" semantic="VERTEX" source="#ID8" />
                    <p>0 1 2 1 0 3 3 0 4 4 0 5 4 5 6 6 5 7 6 7 8 8 7 9 8 9 10 10 9 11 10 11 12 12 11 13 12 13 14 14 13 15 15 13 16 15 16 17 17 16 18 17 18 19 19 18 20 19 20 21 21 20 22 21 22 23 23 22 24 24 22 25 2 26 27 26 2 28 28 2 1 28 1 29 28 29 30 28 30 31 31 30 32 31 32 33 33 32 34 33 34 35 35 34 36 35 36 37 37 36 38 37 38 39 39 38 40 39 40 41 39 41 42 42 41 43 42 43 44 44 43 45 44 45 46 46 45 47 46 47 24 24 47 23 48 49 50 49 48 51 51 52 49 52 51 53 53 54 52 54 53 55 55 56 54 56 55 57 57 58 56 58 57 59 59 60 58 60 59 61 62 60 61 60 62 63 64 63 62 63 64 65 66 65 64 65 66 67 68 67 66 67 68 69 70 69 68 69 70 71 72 71 70 71 72 73 72 74 73 74 72 75 75 76 74 76 75 77 77 78 76 78 77 79 79 80 78 80 79 81 81 82 80 82 81 83 83 84 82 84 83 85 84 86 87 86 84 85 87 88 89 88 87 86 89 90 91 90 89 88 91 92 93 92 91 90 93 94 95 94 93 92 95 48 50 48 95 94 96 97 98 97 96 99 97 99 100 100 99 101 101 99 102 102 99 103 102 103 104 104 103 105 104 105 106 106 105 107 106 107 108 108 107 109 108 109 110 110 109 111 110 111 112 112 111 113 113 111 114 113 114 115 115 114 116 115 116 117 117 116 118 117 118 119 119 118 120 119 120 121 100 122 97 122 100 123 122 123 124 122 124 125 125 124 126 125 126 127 127 126 128 127 128 129 129 128 130 129 130 131 131 130 132 131 132 133 131 133 134 134 133 135 134 135 136 136 135 137 136 137 138 138 137 139 138 139 140 140 139 141 140 141 142 142 141 121 142 121 120 142 120 143</p>
                </triangles>
            </mesh>
        </geometry>
        <geometry id="ID11">
            <mesh>
                <source id="ID12">
                    <float_array id="ID15" count="144">-90.74883 -90.74883 17.32283 -64.16912 -111.1442 0 -90.74883 -90.74883 0 -64.16912 -111.1442 17.32283 -111.1442 -64.16912 0 -111.1442 -64.16912 17.32283 -33.21638 -123.9652 0 -33.21638 -123.9652 17.32283 -123.9652 -33.21638 0 -123.9652 -33.21638 17.32283 -1.57169e-14 -128.3382 0 -1.57169e-14 -128.3382 17.32283 -128.3382 7.85845e-15 0 -128.3382 7.85845e-15 17.32283 33.21638 -123.9652 0 33.21638 -123.9652 17.32283 -123.9652 33.21638 0 -123.9652 33.21638 17.32283 64.16912 -111.1442 0 64.16912 -111.1442 17.32283 -111.1442 64.16912 0 -111.1442 64.16912 17.32283 90.74883 -90.74883 0 90.74883 -90.74883 17.32283 -90.74883 90.74883 0 -90.74883 90.74883 17.32283 111.1442 -64.16912 17.32283 111.1442 -64.16912 0 -64.16912 111.1442 17.32283 -64.16912 111.1442 0 123.9652 -33.21638 17.32283 123.9652 -33.21638 0 -33.21638 123.9652 17.32283 -33.21638 123.9652 0 128.3382 -2.357535e-14 17.32283 128.3382 -2.357535e-14 0 0 128.3382 17.32283 0 128.3382 0 123.9652 33.21638 17.32283 123.9652 33.21638 0 33.21638 123.9652 17.32283 33.21638 123.9652 0 111.1442 64.16912 17.32283 111.1442 64.16912 0 64.16912 111.1442 17.32283 64.16912 111.1442 0 90.74883 90.74883 17.32283 90.74883 90.74883 0</float_array>
                    <technique_common>
                        <accessor count="48" source="#ID15" stride="3">
                            <param name="X" type="float" />
                            <param name="Y" type="float" />
                            <param name="Z" type="float" />
                        </accessor>
                    </technique_common>
                </source>
                <source id="ID13">
                    <float_array id="ID16" count="144">0.7071068 0.7071068 0 0.5 0.8660254 0 0.7071068 0.7071068 0 0.5 0.8660254 0 0.8660254 0.5 0 0.8660254 0.5 0 0.258819 0.9659258 0 0.258819 0.9659258 0 0.9659258 0.258819 0 0.9659258 0.258819 0 3.029777e-16 1 0 3.029777e-16 1 0 1 -1.514889e-16 0 1 -1.514889e-16 0 -0.258819 0.9659258 0 -0.258819 0.9659258 0 0.9659258 -0.258819 0 0.9659258 -0.258819 0 -0.5 0.8660254 0 -0.5 0.8660254 0 0.8660254 -0.5 0 0.8660254 -0.5 0 -0.7071068 0.7071068 0 -0.7071068 0.7071068 0 0.7071068 -0.7071068 0 0.7071068 -0.7071068 0 -0.8660254 0.5 0 -0.8660254 0.5 0 0.5 -0.8660254 0 0.5 -0.8660254 0 -0.9659258 0.258819 0 -0.9659258 0.258819 0 0.258819 -0.9659258 0 0.258819 -0.9659258 0 -1 4.009999e-16 0 -1 4.009999e-16 0 -2.049555e-16 -1 0 -2.049555e-16 -1 0 -0.9659258 -0.258819 0 -0.9659258 -0.258819 0 -0.258819 -0.9659258 0 -0.258819 -0.9659258 0 -0.8660254 -0.5 0 -0.8660254 -0.5 0 -0.5 -0.8660254 0 -0.5 -0.8660254 0 -0.7071068 -0.7071068 0 -0.7071068 -0.7071068 0</float_array>
                    <technique_common>
                        <accessor count="48" source="#ID16" stride="3">
                            <param name="X" type="float" />
                            <param name="Y" type="float" />
                            <param name="Z" type="float" />
                        </accessor>
                    </technique_common>
                </source>
                <vertices id="ID14">
                    <input semantic="POSITION" source="#ID12" />
                    <input semantic="NORMAL" source="#ID13" />
                </vertices>
                <triangles count="48" material="Material2">
                    <input offset="0" semantic="VERTEX" source="#ID14" />
                    <p>0 1 2 1 0 3 4 0 2 0 4 5 3 6 1 6 3 7 8 5 4 5 8 9 7 10 6 10 7 11 12 9 8 9 12 13 11 14 10 14 11 15 16 13 12 13 16 17 15 18 14 18 15 19 20 17 16 17 20 21 19 22 18 22 19 23 24 21 20 21 24 25 26 22 23 22 26 27 28 24 29 24 28 25 30 27 26 27 30 31 32 29 33 29 32 28 34 31 30 31 34 35 36 33 37 33 36 32 38 35 34 35 38 39 40 37 41 37 40 36 42 39 38 39 42 43 44 41 45 41 44 40 46 43 42 43 46 47 46 45 47 45 46 44</p>
                </triangles>
            </mesh>
        </geometry>
    </library_geometries>
    <library_materials>
        <material id="ID5" name="material">
            <instance_effect url="#ID4" />
        </material>
    </library_materials>
    <library_effects>
        <effect id="ID4">
            <profile_COMMON>
                <technique sid="COMMON">
                    <lambert>
                        <diffuse>
                            <color>1 1 1 1</color>
                        </diffuse>
                    </lambert>
                </technique>
            </profile_COMMON>
        </effect>
    </library_effects>
    <scene>
        <instance_visual_scene url="#ID2" />
    </scene>
</COLLADA>
