<?xml version="1.0" encoding="UTF-8" standalone="no" ?>
<COLLADA xmlns="http://www.collada.org/2005/11/COLLADASchema" version="1.4.1">
    <asset>
        <contributor>
            <authoring_tool>SketchUp 17.2.2555</authoring_tool>
        </contributor>
        <created>2018-05-23T14:31:15Z</created>
        <modified>2018-05-23T14:31:15Z</modified>
        <unit meter="0.0254" name="inch" />
        <up_axis>Z_UP</up_axis>
    </asset>
    <library_cameras>
        <camera id="ID1" name="skp_camera_Last_Saved_SketchUp_View">
            <optics>
                <technique_common>
                    <perspective>
                        <yfov>35</yfov>
                        <aspect_ratio>0</aspect_ratio>
                        <znear>1</znear>
                        <zfar>1000</zfar>
                    </perspective>
                </technique_common>
            </optics>
        </camera>
    </library_cameras>
    <library_visual_scenes>
        <visual_scene id="ID2">
            <node name="SketchUp">
                <instance_geometry url="#ID3">
                    <bind_material>
                        <technique_common>
                            <instance_material symbol="Material2" target="#ID5">
                                <bind_vertex_input semantic="UVSET0" input_semantic="TEXCOORD" input_set="0" />
                            </instance_material>
                        </technique_common>
                    </bind_material>
                </instance_geometry>
                <instance_geometry url="#ID11">
                    <bind_material>
                        <technique_common>
                            <instance_material symbol="Material2" target="#ID5">
                                <bind_vertex_input semantic="UVSET0" input_semantic="TEXCOORD" input_set="0" />
                            </instance_material>
                        </technique_common>
                    </bind_material>
                </instance_geometry>
                <node name="skp_camera_Last_Saved_SketchUp_View">
                    <matrix>0.8743547 -0.1594885 0.4583309 551.4481 0.4852874 0.2873546 -0.8257866 -952.3257 -8.326673e-17 0.9444526 0.3286476 603.2903 0 0 0 1</matrix>
                    <instance_camera url="#ID1" />
                </node>
            </node>
        </visual_scene>
    </library_visual_scenes>
    <library_geometries>
        <geometry id="ID3">
            <mesh>
                <source id="ID6">
                    <float_array id="ID9" count="432">-314.8766 84.37093 0 -314.8766 -84.37093 0 -325.9843 1.996078e-14 0 -282.3106 -162.9921 0 -282.3106 162.9921 0 -230.5057 230.5057 0 -257.874 1.579023e-14 0 -249.0872 66.74271 0 -223.3254 128.937 0 -162.9921 282.3106 0 -182.3445 182.3445 0 -128.937 223.3254 0 -84.37093 314.8766 0 -66.74271 249.0872 0 0 325.9843 0 0 257.874 0 84.37093 314.8766 0 66.74271 249.0872 0 128.937 223.3254 0 162.9921 282.3106 0 182.3445 182.3445 0 230.5057 230.5057 0 223.3254 128.937 0 249.0872 66.74271 0 282.3106 162.9921 0 257.874 -4.737069e-14 0 282.3106 -162.9921 0 314.8766 -84.37093 0 314.8766 84.37093 0 325.9843 -5.988234e-14 0 -230.5057 -230.5057 0 -249.0872 -66.74271 0 -223.3254 -128.937 0 -162.9921 -282.3106 0 -182.3445 -182.3445 0 -128.937 -223.3254 0 -84.37093 -314.8766 0 -66.74271 -249.0872 0 -3.992156e-14 -325.9843 0 -3.158046e-14 -257.874 0 84.37093 -314.8766 0 66.74271 -249.0872 0 128.937 -223.3254 0 162.9921 -282.3106 0 182.3445 -182.3445 0 230.5057 -230.5057 0 223.3254 -128.937 0 249.0872 -66.74271 0 -162.9921 282.3106 53.93701 -84.37093 314.8766 0 -162.9921 282.3106 0 -84.37093 314.8766 53.93701 0 325.9843 0 0 325.9843 53.93701 84.37093 314.8766 0 84.37093 314.8766 53.93701 162.9921 282.3106 0 162.9921 282.3106 53.93701 230.5057 230.5057 0 230.5057 230.5057 53.93701 282.3106 162.9921 53.93701 282.3106 162.9921 0 314.8766 84.37093 53.93701 314.8766 84.37093 0 325.9843 -5.988234e-14 53.93701 325.9843 -5.988234e-14 0 314.8766 -84.37093 53.93701 314.8766 -84.37093 0 282.3106 -162.9921 53.93701 282.3106 -162.9921 0 230.5057 -230.5057 53.93701 230.5057 -230.5057 0 162.9921 -282.3106 0 162.9921 -282.3106 53.93701 84.37093 -314.8766 0 84.37093 -314.8766 53.93701 -3.992156e-14 -325.9843 0 -3.992156e-14 -325.9843 53.93701 -84.37093 -314.8766 0 -84.37093 -314.8766 53.93701 -162.9921 -282.3106 0 -162.9921 -282.3106 53.93701 -230.5057 -230.5057 0 -230.5057 -230.5057 53.93701 -282.3106 -162.9921 53.93701 -282.3106 -162.9921 0 -314.8766 -84.37093 53.93701 -314.8766 -84.37093 0 -325.9843 1.996078e-14 53.93701 -325.9843 1.996078e-14 0 -314.8766 84.37093 53.93701 -314.8766 84.37093 0 -282.3106 162.9921 53.93701 -282.3106 162.9921 0 -230.5057 230.5057 53.93701 -230.5057 230.5057 0 -314.8766 -84.37093 53.93701 -314.8766 84.37093 53.93701 -325.9843 1.996078e-14 53.93701 -282.3106 -162.9921 53.93701 -282.3106 162.9921 53.93701 -230.5057 -230.5057 53.93701 -257.874 1.579023e-14 53.93701 -249.0872 -66.74271 53.93701 -223.3254 -128.937 53.93701 -162.9921 -282.3106 53.93701 -182.3445 -182.3445 53.93701 -128.937 -223.3254 53.93701 -84.37093 -314.8766 53.93701 -66.74271 -249.0872 53.93701 -3.992156e-14 -325.9843 53.93701 -3.158046e-14 -257.874 53.93701 84.37093 -314.8766 53.93701 66.74271 -249.0872 53.93701 128.937 -223.3254 53.93701 162.9921 -282.3106 53.93701 182.3445 -182.3445 53.93701 230.5057 -230.5057 53.93701 223.3254 -128.937 53.93701 249.0872 -66.74271 53.93701 282.3106 -162.9921 53.93701 257.874 -4.737069e-14 53.93701 -230.5057 230.5057 53.93701 -249.0872 66.74271 53.93701 -223.3254 128.937 53.93701 -162.9921 282.3106 53.93701 -182.3445 182.3445 53.93701 -128.937 223.3254 53.93701 -84.37093 314.8766 53.93701 -66.74271 249.0872 53.93701 0 325.9843 53.93701 0 257.874 53.93701 66.74271 249.0872 53.93701 84.37093 314.8766 53.93701 128.937 223.3254 53.93701 162.9921 282.3106 53.93701 182.3445 182.3445 53.93701 230.5057 230.5057 53.93701 223.3254 128.937 53.93701 249.0872 66.74271 53.93701 282.3106 162.9921 53.93701 314.8766 -84.37093 53.93701 314.8766 84.37093 53.93701 325.9843 -5.988234e-14 53.93701</float_array>
                    <technique_common>
                        <accessor count="144" source="#ID9" stride="3">
                            <param name="X" type="float" />
                            <param name="Y" type="float" />
                            <param name="Z" type="float" />
                        </accessor>
                    </technique_common>
                </source>
                <source id="ID7">
                    <float_array id="ID10" count="432">0 0 -1 0 0 -1 0 0 -1 0 0 -1 0 0 -1 0 0 -1 0 0 -1 0 0 -1 0 0 -1 0 0 -1 0 0 -1 0 0 -1 0 0 -1 0 0 -1 0 0 -1 0 0 -1 0 0 -1 0 0 -1 0 0 -1 0 0 -1 0 0 -1 0 0 -1 0 0 -1 0 0 -1 0 0 -1 0 0 -1 0 0 -1 0 0 -1 0 0 -1 0 0 -1 0 0 -1 0 0 -1 0 0 -1 0 0 -1 0 0 -1 0 0 -1 0 0 -1 0 0 -1 0 0 -1 0 0 -1 0 0 -1 0 0 -1 0 0 -1 0 0 -1 0 0 -1 0 0 -1 0 0 -1 0 0 -1 -0.5 0.8660254 0 -0.258819 0.9659258 0 -0.5 0.8660254 0 -0.258819 0.9659258 0 1.158444e-16 1 0 1.158444e-16 1 0 0.258819 0.9659258 0 0.258819 0.9659258 0 0.5 0.8660254 0 0.5 0.8660254 0 0.7071068 0.7071068 0 0.7071068 0.7071068 0 0.8660254 0.5 0 0.8660254 0.5 0 0.9659258 0.258819 0 0.9659258 0.258819 0 1 -1.158444e-16 0 1 -1.158444e-16 0 0.9659258 -0.258819 0 0.9659258 -0.258819 0 0.8660254 -0.5 0 0.8660254 -0.5 0 0.7071068 -0.7071068 0 0.7071068 -0.7071068 0 0.5 -0.8660254 0 0.5 -0.8660254 0 0.258819 -0.9659258 0 0.258819 -0.9659258 0 -2.227777e-16 -1 0 -2.227777e-16 -1 0 -0.258819 -0.9659258 0 -0.258819 -0.9659258 0 -0.5 -0.8660254 0 -0.5 -0.8660254 0 -0.7071068 -0.7071068 0 -0.7071068 -0.7071068 0 -0.8660254 -0.5 0 -0.8660254 -0.5 0 -0.9659258 -0.258819 0 -0.9659258 -0.258819 0 -1 2.584222e-16 0 -1 2.584222e-16 0 -0.9659258 0.258819 0 -0.9659258 0.258819 0 -0.8660254 0.5 0 -0.8660254 0.5 0 -0.7071068 0.7071068 0 -0.7071068 0.7071068 0 0 0 1 0 0 1 0 0 1 0 0 1 0 0 1 0 0 1 0 0 1 0 0 1 0 0 1 0 0 1 0 0 1 0 0 1 0 0 1 0 0 1 0 0 1 0 0 1 0 0 1 0 0 1 0 0 1 0 0 1 0 0 1 0 0 1 0 0 1 0 0 1 0 0 1 0 0 1 0 0 1 0 0 1 0 0 1 0 0 1 0 0 1 0 0 1 0 0 1 0 0 1 0 0 1 0 0 1 0 0 1 0 0 1 0 0 1 0 0 1 0 0 1 0 0 1 0 0 1 0 0 1 0 0 1 0 0 1 0 0 1 0 0 1</float_array>
                    <technique_common>
                        <accessor count="144" source="#ID10" stride="3">
                            <param name="X" type="float" />
                            <param name="Y" type="float" />
                            <param name="Z" type="float" />
                        </accessor>
                    </technique_common>
                </source>
                <vertices id="ID8">
                    <input semantic="POSITION" source="#ID6" />
                    <input semantic="NORMAL" source="#ID7" />
                </vertices>
                <triangles count="144" material="Material2">
                    <input offset="0" semantic="VERTEX" source="#ID8" />
                    <p>0 1 2 1 0 3 3 0 4 3 4 5 3 5 6 6 5 7 7 5 8 8 5 9 8 9 10 10 9 11 11 9 12 11 12 13 13 12 14 13 14 15 15 14 16 15 16 17 17 16 18 18 16 19 18 19 20 20 19 21 20 21 22 22 21 23 23 21 24 23 24 25 25 24 26 26 24 27 27 24 28 27 28 29 6 30 3 30 6 31 30 31 32 30 32 33 33 32 34 33 34 35 33 35 36 36 35 37 36 37 38 38 37 39 38 39 40 40 39 41 40 41 42 40 42 43 43 42 44 43 44 45 45 44 46 45 46 47 45 47 26 26 47 25 48 49 50 49 48 51 51 52 49 52 51 53 53 54 52 54 53 55 55 56 54 56 55 57 57 58 56 58 57 59 58 60 61 60 58 59 61 62 63 62 61 60 63 64 65 64 63 62 65 66 67 66 65 64 67 68 69 68 67 66 69 70 71 70 69 68 70 72 71 72 70 73 73 74 72 74 73 75 75 76 74 76 75 77 77 78 76 78 77 79 79 80 78 80 79 81 81 82 80 82 81 83 84 82 83 82 84 85 86 85 84 85 86 87 88 87 86 87 88 89 90 89 88 89 90 91 92 91 90 91 92 93 94 93 92 93 94 95 94 50 95 50 94 48 96 97 98 97 96 99 97 99 100 100 99 101 100 101 102 102 101 103 103 101 104 104 101 105 104 105 106 106 105 107 107 105 108 107 108 109 109 108 110 109 110 111 111 110 112 111 112 113 113 112 114 114 112 115 114 115 116 116 115 117 116 117 118 118 117 119 119 117 120 119 120 121 102 122 100 122 102 123 122 123 124 122 124 125 125 124 126 125 126 127 125 127 128 128 127 129 128 129 130 130 129 131 130 131 132 130 132 133 133 132 134 133 134 135 135 134 136 135 136 137 137 136 138 137 138 139 137 139 140 140 139 121 140 121 120 140 120 141 140 141 142 142 141 143</p>
                </triangles>
            </mesh>
        </geometry>
        <geometry id="ID11">
            <mesh>
                <source id="ID12">
                    <float_array id="ID15" count="144">-128.937 223.3254 53.93701 -182.3445 182.3445 0 -128.937 223.3254 0 -182.3445 182.3445 53.93701 -66.74271 249.0872 53.93701 -66.74271 249.0872 0 -223.3254 128.937 53.93701 -223.3254 128.937 0 0 257.874 53.93701 0 257.874 0 -249.0872 66.74271 53.93701 -249.0872 66.74271 0 66.74271 249.0872 53.93701 66.74271 249.0872 0 -257.874 1.579023e-14 53.93701 -257.874 1.579023e-14 0 128.937 223.3254 53.93701 128.937 223.3254 0 -249.0872 -66.74271 53.93701 -249.0872 -66.74271 0 182.3445 182.3445 53.93701 182.3445 182.3445 0 -223.3254 -128.937 53.93701 -223.3254 -128.937 0 223.3254 128.937 0 223.3254 128.937 53.93701 -182.3445 -182.3445 53.93701 -182.3445 -182.3445 0 249.0872 66.74271 0 249.0872 66.74271 53.93701 -128.937 -223.3254 0 -128.937 -223.3254 53.93701 257.874 -4.737069e-14 0 257.874 -4.737069e-14 53.93701 -66.74271 -249.0872 0 -66.74271 -249.0872 53.93701 249.0872 -66.74271 0 249.0872 -66.74271 53.93701 -3.158046e-14 -257.874 0 -3.158046e-14 -257.874 53.93701 223.3254 -128.937 0 223.3254 -128.937 53.93701 66.74271 -249.0872 0 66.74271 -249.0872 53.93701 182.3445 -182.3445 0 182.3445 -182.3445 53.93701 128.937 -223.3254 0 128.937 -223.3254 53.93701</float_array>
                    <technique_common>
                        <accessor count="48" source="#ID15" stride="3">
                            <param name="X" type="float" />
                            <param name="Y" type="float" />
                            <param name="Z" type="float" />
                        </accessor>
                    </technique_common>
                </source>
                <source id="ID13">
                    <float_array id="ID16" count="144">0.5 -0.8660254 0 0.7071068 -0.7071068 0 0.5 -0.8660254 0 0.7071068 -0.7071068 0 0.258819 -0.9659258 0 0.258819 -0.9659258 0 0.8660254 -0.5 0 0.8660254 -0.5 0 -2.227777e-16 -1 0 -2.227777e-16 -1 0 0.9659258 -0.258819 0 0.9659258 -0.258819 0 -0.258819 -0.9659258 0 -0.258819 -0.9659258 0 1 -1.514889e-16 0 1 -1.514889e-16 0 -0.5 -0.8660254 0 -0.5 -0.8660254 0 0.9659258 0.258819 0 0.9659258 0.258819 0 -0.7071068 -0.7071068 0 -0.7071068 -0.7071068 0 0.8660254 0.5 0 0.8660254 0.5 0 -0.8660254 -0.5 0 -0.8660254 -0.5 0 0.7071068 0.7071068 0 0.7071068 0.7071068 0 -0.9659258 -0.258819 0 -0.9659258 -0.258819 0 0.5 0.8660254 0 0.5 0.8660254 0 -1 3.920888e-16 0 -1 3.920888e-16 0 0.258819 0.9659258 0 0.258819 0.9659258 0 -0.9659258 0.258819 0 -0.9659258 0.258819 0 2.940666e-16 1 0 2.940666e-16 1 0 -0.8660254 0.5 0 -0.8660254 0.5 0 -0.258819 0.9659258 0 -0.258819 0.9659258 0 -0.7071068 0.7071068 0 -0.7071068 0.7071068 0 -0.5 0.8660254 0 -0.5 0.8660254 0</float_array>
                    <technique_common>
                        <accessor count="48" source="#ID16" stride="3">
                            <param name="X" type="float" />
                            <param name="Y" type="float" />
                            <param name="Z" type="float" />
                        </accessor>
                    </technique_common>
                </source>
                <vertices id="ID14">
                    <input semantic="POSITION" source="#ID12" />
                    <input semantic="NORMAL" source="#ID13" />
                </vertices>
                <triangles count="48" material="Material2">
                    <input offset="0" semantic="VERTEX" source="#ID14" />
                    <p>0 1 2 1 0 3 4 2 5 2 4 0 1 6 7 6 1 3 8 5 9 5 8 4 7 10 11 10 7 6 12 9 13 9 12 8 11 14 15 14 11 10 16 13 17 13 16 12 15 18 19 18 15 14 20 17 21 17 20 16 19 22 23 22 19 18 20 24 25 24 20 21 23 26 27 26 23 22 25 28 29 28 25 24 26 30 27 30 26 31 29 32 33 32 29 28 31 34 30 34 31 35 33 36 37 36 33 32 35 38 34 38 35 39 37 40 41 40 37 36 39 42 38 42 39 43 41 44 45 44 41 40 43 46 42 46 43 47 47 44 46 44 47 45</p>
                </triangles>
            </mesh>
        </geometry>
    </library_geometries>
    <library_materials>
        <material id="ID5" name="material">
            <instance_effect url="#ID4" />
        </material>
    </library_materials>
    <library_effects>
        <effect id="ID4">
            <profile_COMMON>
                <technique sid="COMMON">
                    <lambert>
                        <diffuse>
                            <color>1 1 1 1</color>
                        </diffuse>
                    </lambert>
                </technique>
            </profile_COMMON>
        </effect>
    </library_effects>
    <scene>
        <instance_visual_scene url="#ID2" />
    </scene>
</COLLADA>
